<?xml version="1.0" encoding="utf-8"?>
<!-- Generator: Adobe Illustrator 24.0.2, SVG Export Plug-In . SVG Version: 6.00 Build 0)  -->
<svg version="1.1" id="Capa_1" xmlns="http://www.w3.org/2000/svg" xmlns:xlink="http://www.w3.org/1999/xlink" x="0px" y="0px"
	 viewBox="0 0 262 146" style="enable-background:new 0 0 262 146;" xml:space="preserve">
<style type="text/css">
	.st0{fill:#005CB9;}
	.st1{fill:#3C88CE;}
	.st2{fill-rule:evenodd;clip-rule:evenodd;fill:#BFD1ED;}
	.st3{clip-path:url(#SVGID_2_);}
	.st4{fill-rule:evenodd;clip-rule:evenodd;fill:#3C88CE;}
	.st5{fill:#005DB7;}
	.st6{clip-path:url(#SVGID_4_);}
</style>
<g>
	<defs>
		<rect id="SVGID_3_" x="5" y="3" width="240" height="136.9"/>
	</defs>
	<clipPath id="SVGID_2_">
		<use xlink:href="#SVGID_3_"  style="overflow:visible;"/>
	</clipPath>
	<g class="st3">
		<path class="st2" d="M44.7,1.9v-121.3c0-16.5-18.2-26.7-32.7-18.5C-33.8-112.3-64.6-64.1-64.6-8.8c0,8,0.7,15.8,1.9,23.5
			C-61,25-51.8,32.4-41.2,32.4h54.8C30.8,32.4,44.7,18.7,44.7,1.9z"/>
		<path class="st4" d="M70.5,123.5c0,9,7.4,16.4,16.5,16.5c0.1,0,0.1,0,0.2,0c46.9,0,88.9-20.9,116.7-53.7
			c9.2-10.9,1.4-27.3-13-27.3h-89.6c-17.1,0-30.9,13.5-30.9,30.2V123.5z"/>
		<path class="st5" d="M20.5,51h-51.8c-9.7,0-15.6,10.5-10.5,18.6c17.4,27.5,43.8,49.1,75.1,60.7c8,3,16.6-3,16.6-11.4V78.4
			c3-28,20.6-34.5,31.9-35.9h127.8c12.5,0,23.6-8.5,26.1-20.5c2.1-10,3.3-20.3,3.3-30.9c0-82.1-68-148.7-151.8-148.7h0h0
			c-14.7,0-26.7,11.8-26.7,26.1V15.1C60.4,22.8,57.1,50.4,20.5,51z"/>
	</g>
</g>
</svg>
