<?xml version="1.0" encoding="utf-8"?>
<!-- Generator: Adobe Illustrator 23.0.3, SVG Export Plug-In . SVG Version: 6.00 Build 0)  -->
<svg version="1.1" id="Capa_1" xmlns="http://www.w3.org/2000/svg" xmlns:xlink="http://www.w3.org/1999/xlink" x="0px" y="0px"
	 viewBox="0 0 1250.29 284.5" style="enable-background:new 0 0 1250.29 284.5;" xml:space="preserve">
<style type="text/css">
	.st0{fill:#FFFFFF;}
	.st1{fill:#002B46;}
	.st2{font-family:'MyriadPro-Regular';}
	.st3{font-size:29.8668px;}
	.st4{fill:#F15A24;}
	.st5{fill:none;stroke:#666666;stroke-width:1.9843;stroke-miterlimit:10;}
	.st6{font-size:23px;}
	.st7{fill:#ADB9C1;}
	.st8{opacity:0.3;fill:#FFFFFF;}
	.st9{opacity:0.22;fill:#FFFFFF;}
	.st10{opacity:0.34;fill:#FFFFFF;}
	.st11{opacity:0.7;fill:#FFFFFF;}
	.st12{fill:#EFEFEF;}
	.st13{fill:#F0EFEE;}
</style>
<rect class="st0" width="1250.29" height="284.5"/>
<g>
	<text transform="matrix(1 0 0 1 542.2055 229.0271)" class="st1 st2 st3">222 152 9028</text>
	<g>
		<path class="st1" d="M590.71,111.05c0.16-10.38,0.29-20.76,0.48-31.15c0.08-4.25,0.29-8.51,0.48-12.76
			c0.12-2.74,1.52-4.2,4.27-4.54c1.92-0.24,3.86-0.4,5.78-0.62c0.24-0.03,0.47-0.15,0.71-0.22c4.57,0,9.14,0,13.71,0
			c1.05,0.14,2.11,0.27,3.16,0.41c1.52,0.19,3.05,0.32,4.55,0.59c2.18,0.38,3.49,1.98,3.54,4.2c0.33,14.64,0.66,29.28,1,43.92
			c0,0.07,0.02,0.13,0.03,0.2c-0.07,3.57-0.13,7.14-0.2,10.71c-0.04,2-0.12,4.01-0.19,6.01c-0.2,6.22-0.41,12.43-0.61,18.65
			c-11.94,0-23.87,0-35.81,0c-0.07-1.46-0.14-2.92-0.2-4.38c-0.14-3.84-0.31-7.68-0.4-11.52c-0.11-4.94-0.16-9.87-0.24-14.81
			C590.75,114.18,590.73,112.62,590.71,111.05z M598.98,97.96c7.1,0,14.1,0,21.14,0c0-5.35,0-10.65,0-15.97c-7.08,0-14.1,0-21.14,0
			C598.98,87.34,598.98,92.61,598.98,97.96z M601,119.88c0.48-0.05,0.85-0.08,1.22-0.14c0.99-0.15,1.55-0.78,1.55-1.73
			c0-0.95-0.57-1.63-1.55-1.71c-0.87-0.06-1.76-0.04-2.62,0.09c-0.85,0.13-1.24,0.8-1.25,1.62c0,0.83,0.41,1.43,1.25,1.63
			C600.09,119.78,600.6,119.82,601,119.88z M609.66,119.9c0.5-0.07,1.01-0.12,1.5-0.23c0.85-0.18,1.27-0.78,1.28-1.61
			c0.02-0.88-0.41-1.5-1.31-1.68c-0.49-0.1-1-0.16-1.51-0.16c-1.71-0.02-2.59,0.59-2.63,1.77
			C606.97,119.19,607.89,119.83,609.66,119.9z M618.11,116.15c-0.47,0.07-0.93,0.13-1.4,0.21c-0.91,0.16-1.36,0.76-1.37,1.63
			c-0.01,0.92,0.45,1.55,1.41,1.7c0.47,0.07,0.94,0.14,1.41,0.14c1.7,0.01,2.59-0.6,2.61-1.78
			C620.8,116.85,619.89,116.21,618.11,116.15z M601.13,124.95c-0.47,0.07-0.94,0.13-1.4,0.21c-0.91,0.16-1.36,0.76-1.37,1.63
			c-0.02,0.87,0.42,1.5,1.32,1.67c0.49,0.1,1,0.16,1.51,0.16c1.7,0.02,2.59-0.6,2.61-1.78
			C603.82,125.64,602.91,125.01,601.13,124.95z M609.71,128.69c0.47-0.07,0.94-0.13,1.4-0.22c0.9-0.18,1.34-0.79,1.34-1.66
			c0-0.87-0.45-1.48-1.35-1.64c-0.46-0.08-0.94-0.15-1.41-0.15c-1.78-0.02-2.69,0.61-2.68,1.81
			C607.01,128.03,607.91,128.63,609.71,128.69z M617.93,128.67c0.5-0.04,0.85-0.03,1.17-0.1c1.04-0.21,1.67-0.89,1.67-1.76
			c0-0.87-0.63-1.61-1.68-1.72c-0.83-0.09-1.69-0.03-2.52,0.11c-0.85,0.14-1.24,0.8-1.24,1.63c0,0.83,0.41,1.43,1.25,1.63
			C617.08,128.57,617.59,128.62,617.93,128.67z M611.32,139.1c-0.03,0-0.05-0.01-0.08-0.01c0-0.34,0.01-0.68,0-1.02
			c-0.02-0.83-0.73-1.7-1.49-1.81c-0.81-0.12-1.7,0.45-1.85,1.39c-0.14,0.89-0.16,1.83-0.06,2.73c0.1,0.85,0.74,1.49,1.59,1.44
			c0.55-0.03,1.27-0.41,1.57-0.86C611.32,140.48,611.23,139.73,611.32,139.1z M601.01,111.09c0.5-0.08,1.11,0,1.47-0.27
			c0.53-0.38,1.13-0.96,1.23-1.53c0.08-0.46-0.42-1.22-0.87-1.52c-0.48-0.32-1.22-0.33-1.85-0.34c-1.75-0.03-2.65,0.61-2.65,1.81
			C598.35,110.42,599.25,111.04,601.01,111.09z M609.9,111.13c0.55-0.14,1.22-0.14,1.62-0.46c0.44-0.35,0.89-1.03,0.86-1.54
			c-0.03-0.52-0.56-1.36-0.99-1.44c-1.06-0.21-2.21-0.19-3.28-0.02c-0.85,0.13-1.25,1.17-0.99,2.02
			C607.43,110.71,608.09,111.03,609.9,111.13z M618.08,107.36c-0.43,0.06-0.87,0.12-1.3,0.19c-0.95,0.15-1.43,0.75-1.45,1.67
			c-0.02,0.9,0.49,1.46,1.35,1.65c0.46,0.1,0.93,0.16,1.4,0.16c1.72,0.01,2.7-0.67,2.69-1.82
			C620.76,108.01,619.87,107.41,618.08,107.36z"/>
		<path class="st4" d="M627.42,146.46c0.2-6.22,0.41-12.43,0.61-18.65c0.07-2,0.14-4.01,0.19-6.01c0.08-3.57,0.14-7.14,0.2-10.71
			c10.29,0,20.58,0,30.88,0.01c3.82,0.01,6.85,1.53,8.52,5.06c0.59,1.25,0.9,2.75,0.9,4.13c0.07,12.34,0.06,24.67,0.03,37.01
			c-0.02,5.46-3.84,9.2-9.32,9.21c-22.87,0.01-45.74,0.01-68.6,0c-5.46,0-9.27-3.78-9.29-9.24c-0.03-12.3-0.02-24.61,0-36.91
			c0.01-4.51,2.51-7.8,6.76-8.95c0.78-0.21,1.61-0.24,2.42-0.35c0.02,1.57,0.04,3.13,0.06,4.7c0.08,4.94,0.12,9.87,0.24,14.81
			c0.09,3.84,0.26,7.68,0.4,11.52c0.05,1.46,0.13,2.92,0.2,4.38c-0.14,0-0.27,0-0.41,0.01c-1.46,0.11-2.27,0.78-2.26,1.85
			c0.01,1.09,0.92,1.78,2.4,1.82c0.07,0,0.14,0,0.2,0c12.03,0,24.06,0,36.1-0.01c0.43,0,0.96,0,1.28-0.22
			c0.46-0.32,0.91-0.8,1.1-1.32c0.26-0.7-0.07-1.41-0.74-1.72C628.72,146.6,628.04,146.58,627.42,146.46z M658.69,142.69
			c0.01-5.5-4.58-10.19-10.04-10.13c-5.68,0.06-10.16,4.35-10.12,10.13c0.04,5.67,4.26,9.97,10.02,10.01
			C654.27,152.74,658.48,148.4,658.69,142.69z M648.56,123.55c3.27,0,6.55-0.01,9.82,0.01c0.77,0,1.42-0.17,1.78-0.92
			c0.63-1.28-0.21-2.55-1.75-2.56c-6.55-0.02-13.09-0.01-19.64,0c-1.2,0-1.98,0.71-1.98,1.73c0,1.07,0.78,1.74,2.05,1.74
			C642.09,123.55,645.33,123.55,648.56,123.55z"/>
		<path class="st0" d="M598.98,97.96c0-5.35,0-10.62,0-15.97c7.04,0,14.06,0,21.14,0c0,5.33,0,10.62,0,15.97
			C613.08,97.96,606.08,97.96,598.98,97.96z"/>
		<path class="st0" d="M627.42,146.46c0.62,0.13,1.3,0.15,1.86,0.41c0.67,0.31,1.01,1.02,0.74,1.72c-0.19,0.51-0.64,0.99-1.1,1.32
			c-0.32,0.23-0.84,0.22-1.28,0.22c-12.03,0.01-24.06,0.01-36.1,0.01c-0.07,0-0.14,0-0.2,0c-1.48-0.04-2.39-0.72-2.4-1.82
			c-0.01-1.07,0.81-1.74,2.26-1.85c0.14-0.01,0.27-0.01,0.41-0.01C603.55,146.46,615.48,146.46,627.42,146.46z"/>
		<path class="st0" d="M601,119.88c-0.4-0.06-0.91-0.1-1.4-0.22c-0.84-0.2-1.25-0.8-1.25-1.63c0-0.83,0.39-1.5,1.25-1.62
			c0.86-0.13,1.75-0.15,2.62-0.09c0.99,0.07,1.55,0.76,1.55,1.71c0,0.94-0.56,1.58-1.55,1.73C601.85,119.8,601.48,119.83,601,119.88
			z"/>
		<path class="st0" d="M609.66,119.9c-1.78-0.06-2.7-0.71-2.66-1.91c0.04-1.18,0.92-1.78,2.63-1.77c0.5,0,1.01,0.06,1.51,0.16
			c0.9,0.18,1.33,0.81,1.31,1.68c-0.02,0.82-0.43,1.42-1.28,1.61C610.67,119.77,610.16,119.82,609.66,119.9z"/>
		<path class="st0" d="M618.11,116.15c1.78,0.06,2.7,0.7,2.67,1.9c-0.03,1.17-0.91,1.79-2.61,1.78c-0.47,0-0.94-0.07-1.41-0.14
			c-0.96-0.15-1.43-0.78-1.41-1.7c0.01-0.87,0.46-1.47,1.37-1.63C617.17,116.28,617.64,116.22,618.11,116.15z"/>
		<path class="st0" d="M601.13,124.95c1.78,0.06,2.7,0.69,2.67,1.9c-0.03,1.18-0.91,1.79-2.61,1.78c-0.5,0-1.01-0.06-1.51-0.16
			c-0.9-0.18-1.33-0.8-1.32-1.67c0.02-0.87,0.46-1.47,1.37-1.63C600.19,125.08,600.66,125.02,601.13,124.95z"/>
		<path class="st0" d="M609.71,128.69c-1.8-0.06-2.7-0.66-2.71-1.86c-0.01-1.21,0.9-1.83,2.68-1.81c0.47,0,0.94,0.07,1.41,0.15
			c0.91,0.16,1.35,0.77,1.35,1.64c0,0.87-0.43,1.48-1.34,1.66C610.64,128.57,610.18,128.62,609.71,128.69z"/>
		<path class="st0" d="M617.93,128.67c-0.35-0.05-0.85-0.1-1.34-0.21c-0.84-0.2-1.25-0.8-1.25-1.63c0-0.83,0.39-1.49,1.24-1.63
			c0.82-0.14,1.69-0.2,2.52-0.11c1.05,0.11,1.68,0.85,1.68,1.72c0,0.87-0.63,1.55-1.67,1.76
			C618.78,128.64,618.44,128.63,617.93,128.67z"/>
		<path class="st0" d="M611.32,139.1c-0.09,0.63,0,1.38-0.32,1.86c-0.3,0.45-1.02,0.83-1.57,0.86c-0.85,0.05-1.49-0.59-1.59-1.44
			c-0.11-0.9-0.09-1.84,0.06-2.73c0.15-0.94,1.03-1.51,1.85-1.39c0.75,0.11,1.47,0.98,1.49,1.81c0.01,0.34,0,0.68,0,1.02
			C611.26,139.09,611.29,139.09,611.32,139.1z"/>
		<path class="st0" d="M601.01,111.09c-1.76-0.05-2.66-0.67-2.67-1.86c-0.01-1.19,0.9-1.84,2.65-1.81c0.63,0.01,1.37,0.02,1.85,0.34
			c0.46,0.3,0.96,1.06,0.87,1.52c-0.1,0.58-0.7,1.16-1.23,1.53C602.12,111.08,601.51,111.01,601.01,111.09z"/>
		<path class="st0" d="M609.9,111.13c-1.81-0.1-2.47-0.42-2.78-1.44c-0.26-0.86,0.14-1.89,0.99-2.02c1.08-0.17,2.22-0.19,3.28,0.02
			c0.43,0.08,0.96,0.92,0.99,1.44c0.03,0.51-0.42,1.18-0.86,1.54C611.12,111,610.45,110.99,609.9,111.13z"/>
		<path class="st0" d="M618.08,107.36c1.79,0.05,2.68,0.65,2.7,1.85c0.01,1.15-0.97,1.82-2.69,1.82c-0.47,0-0.94-0.06-1.4-0.16
			c-0.86-0.19-1.38-0.75-1.35-1.65c0.02-0.92,0.5-1.52,1.45-1.67C617.21,107.48,617.65,107.42,618.08,107.36z"/>
		<path class="st1" d="M658.69,142.69c-0.2,5.7-4.42,10.05-10.15,10.01c-5.76-0.04-9.98-4.34-10.02-10.01
			c-0.04-5.78,4.44-10.07,10.12-10.13C654.1,132.51,658.7,137.2,658.69,142.69z"/>
		<path class="st1" d="M648.56,123.55c-3.24,0-6.48,0-9.72,0c-1.27,0-2.05-0.67-2.05-1.74c0-1.02,0.78-1.73,1.98-1.73
			c6.55-0.01,13.09-0.02,19.64,0c1.54,0.01,2.37,1.28,1.75,2.56c-0.37,0.75-1.01,0.92-1.78,0.92
			C655.11,123.54,651.84,123.55,648.56,123.55z"/>
	</g>
	<g>
		<line class="st5" x1="416.76" y1="34.38" x2="416.76" y2="244.38"/>
		<line class="st5" x1="833.52" y1="34.38" x2="833.52" y2="244.38"/>
	</g>
	<g>
		<text transform="matrix(1 0 0 1 935.1623 209.6544)" class="st1 st2 st6">has@humanly-sw.com</text>
		<text transform="matrix(1 0 0 1 914.3826 244.369)" class="st1 st2 st6">soporte@humanly-sw.com</text>
	</g>
	<g>
		<path class="st7" d="M996.25,157.22c1.49,0.01,2.98,0.02,4.48,0.03c-0.9,0.8-1.82,1.59-2.7,2.41c-0.28,0.26-0.48,0.61-0.71,0.92
			C996.25,159.69,996.1,158.5,996.25,157.22z"/>
		<g>
			<path class="st4" d="M1009.05,67.14c19.4,0,38.8,0,58.2,0c0,16.97,0,33.95,0.01,50.92c0,0.41,0.13,0.82,0.19,1.23
				c-2.69,2.11-5.38,4.21-8.07,6.33c-2.42,1.91-4.83,3.83-7.24,5.74c-2.39,1.84-4.79,3.67-7.17,5.53c-1.03,0.81-2.16,1.2-3.48,1.15
				c-1.3-0.05-2.3-0.71-3.28-1.47c-2.24-1.74-4.48-3.47-6.72-5.2c-0.15-0.15-0.3-0.31-0.46-0.44c-7.19-5.63-14.38-11.26-21.56-16.9
				c-1.08-0.85-2.11-1.75-3.16-2.62c0-5.09,0-10.18-0.01-15.26c0.01-0.43,0.04-0.85,0.04-1.28c0-7.69,0.04-15.38-0.02-23.07
				C1006.31,69.62,1006.93,67.98,1009.05,67.14z"/>
			<path class="st8" d="M1009.05,67.14c19.4,0,38.8,0,58.2,0c0,16.97,0,33.95,0.01,50.92c0,0.41,0.13,0.82,0.19,1.23
				c-2.69,2.11-5.38,4.21-8.07,6.33c-2.42,1.91-4.83,3.83-7.24,5.74c-2.39,1.84-4.79,3.67-7.17,5.53c-1.03,0.81-2.16,1.2-3.48,1.15
				c-1.3-0.05-2.3-0.71-3.28-1.47c-2.24-1.74-4.48-3.47-6.72-5.2c-0.15-0.15-0.3-0.31-0.46-0.44c-7.19-5.63-14.38-11.26-21.56-16.9
				c-1.08-0.85-2.11-1.75-3.16-2.62c0-5.09,0-10.18-0.01-15.26c0.01-0.43,0.04-0.85,0.04-1.28c0-7.69,0.04-15.38-0.02-23.07
				C1006.31,69.62,1006.93,67.98,1009.05,67.14z"/>
			<path class="st4" d="M1067.45,119.3c-0.07-0.41-0.19-0.82-0.19-1.23c-0.01-16.97-0.01-33.95-0.01-50.92c2.51,0,5.02,0,7.53,0
				c1.99,0.86,2.65,2.38,2.62,4.53c-0.1,5.74-0.04,11.49-0.03,17.23c0,2.41,0.02,4.83,0.04,7.24c-0.01,5.09-0.01,10.19-0.02,15.28
				c-0.02,0.09-0.03,0.18-0.05,0.28c-0.25,0.17-0.51,0.33-0.75,0.52C1073.54,114.57,1070.5,116.94,1067.45,119.3z"/>
			<path class="st9" d="M1067.45,119.3c-0.07-0.41-0.19-0.82-0.19-1.23c-0.01-16.97-0.01-33.95-0.01-50.92c2.51,0,5.02,0,7.53,0
				c1.99,0.86,2.65,2.38,2.62,4.53c-0.1,5.74-0.04,11.49-0.03,17.23c0,2.41,0.02,4.83,0.04,7.24c-0.01,5.09-0.01,10.19-0.02,15.28
				c-0.02,0.09-0.03,0.18-0.05,0.28c-0.25,0.17-0.51,0.33-0.75,0.52C1073.54,114.57,1070.5,116.94,1067.45,119.3z"/>
			<path class="st1" d="M998.22,161.14c-0.37-0.24-0.74-0.48-1.11-0.72c0.19-0.25,0.35-0.54,0.58-0.75c0.72-0.67,1.46-1.31,2.2-1.97
				c0.12-0.02,0.23-0.04,0.35-0.06c0.44,0.06,0.89,0.18,1.33,0.18c23.98,0.01,47.97,0.01,71.95,0.01c0.28,0,0.55,0.01,0.83,0
				c1.85-0.09,2.99-1.28,3-3.12c0.01-0.63,0-1.25,0-2.03c0.31,0.17,0.45,0.22,0.56,0.31c1.56,1.31,3.13,2.62,4.68,3.96
				c1.34,1.15,2.65,2.33,3.98,3.5c-0.32,0.23-0.64,0.46-0.96,0.7C1056.48,161.14,1027.35,161.14,998.22,161.14z"/>
			<path class="st1" d="M1086.57,160.44c-1.33-1.17-2.64-2.35-3.98-3.5c-1.55-1.33-3.12-2.64-4.68-3.96
				c-0.11-0.09-0.24-0.14-0.56-0.31c0,0.77,0,1.4,0,2.03c-0.01,1.85-1.15,3.03-3,3.12c-0.27,0.01-0.55,0-0.83,0
				c-23.98,0-47.97,0-71.95-0.01c-0.44,0-0.89-0.11-1.33-0.18c0.25-0.27,0.47-0.56,0.75-0.79c2.21-1.87,4.43-3.73,6.65-5.59
				c2.52-2.11,5.04-4.23,7.56-6.34c2.71-2.27,5.42-4.53,8.14-6.79c2.72-2.26,5.44-4.51,8.16-6.76c2.24,1.73,4.49,3.46,6.72,5.2
				c0.97,0.76,1.97,1.41,3.28,1.47c1.32,0.05,2.44-0.35,3.48-1.15c2.38-1.86,4.78-3.69,7.17-5.53c1.56,1.27,3.12,2.54,4.67,3.83
				c2.57,2.15,5.13,4.33,7.69,6.49c2.94,2.48,5.87,4.95,8.81,7.43c1.29,1.09,2.59,2.17,4.03,3.39c0-13.73,0-27.26,0-40.8
				c0.02-0.09,0.03-0.18,0.05-0.28c0.11-0.05,0.23-0.09,0.33-0.16c3-2.35,6-4.7,9-7.05c0.23,0.4,0.57,0.77,0.68,1.2
				c0.16,0.61,0.21,1.27,0.21,1.9c0.01,16.77,0.01,33.55,0.01,50.32C1087.61,158.7,1087.49,159.72,1086.57,160.44z"/>
			<path class="st10" d="M1086.57,160.44c-1.33-1.17-2.64-2.35-3.98-3.5c-1.55-1.33-3.12-2.64-4.68-3.96
				c-0.11-0.09-0.24-0.14-0.56-0.31c0,0.77,0,1.4,0,2.03c-0.01,1.85-1.15,3.03-3,3.12c-0.27,0.01-0.55,0-0.83,0
				c-23.98,0-47.97,0-71.95-0.01c-0.44,0-0.89-0.11-1.33-0.18c0.25-0.27,0.47-0.56,0.75-0.79c2.21-1.87,4.43-3.73,6.65-5.59
				c2.52-2.11,5.04-4.23,7.56-6.34c2.71-2.27,5.42-4.53,8.14-6.79c2.72-2.26,5.44-4.51,8.16-6.76c2.24,1.73,4.49,3.46,6.72,5.2
				c0.97,0.76,1.97,1.41,3.28,1.47c1.32,0.05,2.44-0.35,3.48-1.15c2.38-1.86,4.78-3.69,7.17-5.53c1.56,1.27,3.12,2.54,4.67,3.83
				c2.57,2.15,5.13,4.33,7.69,6.49c2.94,2.48,5.87,4.95,8.81,7.43c1.29,1.09,2.59,2.17,4.03,3.39c0-13.73,0-27.26,0-40.8
				c0.02-0.09,0.03-0.18,0.05-0.28c0.11-0.05,0.23-0.09,0.33-0.16c3-2.35,6-4.7,9-7.05c0.23,0.4,0.57,0.77,0.68,1.2
				c0.16,0.61,0.21,1.27,0.21,1.9c0.01,16.77,0.01,33.55,0.01,50.32C1087.61,158.7,1087.49,159.72,1086.57,160.44z"/>
			<path class="st1" d="M1031.5,131.37c-2.72,2.25-5.44,4.5-8.16,6.76c-2.72,2.26-5.43,4.53-8.14,6.79
				c-2.52,2.11-5.04,4.22-7.56,6.34c-2.22,1.86-4.44,3.72-6.65,5.59c-0.28,0.23-0.5,0.53-0.75,0.79c-0.12,0.02-0.23,0.04-0.35,0.05
				c-1.22-0.01-2.43-0.02-3.65-0.03c-0.01-0.34-0.04-0.67-0.04-1.01c0-16.6-0.01-33.19,0.03-49.79c0-0.88,0.46-1.77,0.7-2.65
				c1.89,1.48,3.76,2.97,5.66,4.43c1.22,0.94,2.48,1.84,3.72,2.75c1.05,0.88,2.09,1.78,3.16,2.62c7.18,5.64,14.37,11.27,21.56,16.9
				C1031.2,131.06,1031.35,131.22,1031.5,131.37z"/>
			<path class="st1" d="M1077.34,111.7c0,13.53,0,27.06,0,40.8c-1.44-1.21-2.74-2.3-4.03-3.39c-2.94-2.48-5.87-4.95-8.81-7.43
				c-2.56-2.16-5.12-4.34-7.69-6.49c-1.54-1.29-3.11-2.55-4.67-3.83c2.41-1.91,4.82-3.83,7.24-5.74c2.68-2.11,5.38-4.22,8.07-6.33
				c3.04-2.36,6.09-4.72,9.13-7.08C1076.83,112.03,1077.09,111.87,1077.34,111.7z"/>
			<path class="st11" d="M1031.5,131.37c-2.72,2.25-5.44,4.5-8.16,6.76c-2.72,2.26-5.43,4.53-8.14,6.79
				c-2.52,2.11-5.04,4.22-7.56,6.34c-2.22,1.86-4.44,3.72-6.65,5.59c-0.28,0.23-0.5,0.53-0.75,0.79c-0.12,0.02-0.23,0.04-0.35,0.05
				c-1.22-0.01-2.43-0.02-3.65-0.03c-0.01-0.34-0.04-0.67-0.04-1.01c0-16.6-0.01-33.19,0.03-49.79c0-0.88,0.46-1.77,0.7-2.65
				c1.89,1.48,3.76,2.97,5.66,4.43c1.22,0.94,2.48,1.84,3.72,2.75c1.05,0.88,2.09,1.78,3.16,2.62c7.18,5.64,14.37,11.27,21.56,16.9
				C1031.2,131.06,1031.35,131.22,1031.5,131.37z"/>
			<path class="st11" d="M1077.34,111.7c0,13.53,0,27.06,0,40.8c-1.44-1.21-2.74-2.3-4.03-3.39c-2.94-2.48-5.87-4.95-8.81-7.43
				c-2.56-2.16-5.12-4.34-7.69-6.49c-1.54-1.29-3.11-2.55-4.67-3.83c2.41-1.91,4.82-3.83,7.24-5.74c2.68-2.11,5.38-4.22,8.07-6.33
				c3.04-2.36,6.09-4.72,9.13-7.08C1076.83,112.03,1077.09,111.87,1077.34,111.7z"/>
			<path class="st12" d="M1006.32,111.41c-1.24-0.92-2.5-1.81-3.72-2.75c-1.9-1.46-3.78-2.95-5.66-4.43c0.7-0.85,1.3-1.84,2.13-2.54
				c2.22-1.86,4.54-3.6,6.82-5.38c0.11-0.09,0.28-0.11,0.42-0.17C1006.31,101.23,1006.31,106.32,1006.32,111.41z"/>
			<path class="st13" d="M1086.71,104.21c-3,2.35-6,4.7-9,7.05c-0.09,0.07-0.22,0.11-0.33,0.16c0.01-5.09,0.01-10.19,0.02-15.28
				c1.77,1.33,3.55,2.65,5.3,4c1.08,0.84,2.15,1.69,3.15,2.62C1086.25,103.13,1086.43,103.72,1086.71,104.21z"/>
			<g>
				<path class="st0" d="M1050.42,117.1c-3.23,1.7-6.52,2.35-10.45,2.35c-9.63,0-17.79-7.05-17.79-18.32
					c0-12.1,8.4-22.55,21.43-22.55c10.22,0,17.09,7.16,17.09,16.97c0,8.81-4.93,13.97-10.45,13.97c-2.35,0-4.52-1.58-4.35-5.17
					h-0.23c-2.06,3.46-4.76,5.17-8.28,5.17c-3.41,0-6.34-2.76-6.34-7.4c0-7.28,5.75-13.92,13.92-13.92c2.52,0,4.76,0.53,6.28,1.23
					l-2,10.63c-0.88,4.46-0.18,6.52,1.76,6.58c2.99,0.06,6.34-3.93,6.34-10.75c0-8.51-5.11-14.62-14.21-14.62
					c-9.57,0-17.61,7.57-17.61,19.49c0,9.81,6.4,15.85,15.09,15.85c3.35,0,6.46-0.7,8.87-2.06L1050.42,117.1z M1047.19,91.73
					c-0.59-0.18-1.59-0.41-2.94-0.41c-5.17,0-9.34,4.87-9.34,10.57c0,2.58,1.29,4.46,3.88,4.46c3.41,0,6.52-4.35,7.16-7.99
					L1047.19,91.73z"/>
			</g>
		</g>
	</g>
	<text transform="matrix(1 0 0 1 125.4434 229.0273)" class="st1 st2 st3">56 1831 0980</text>
	<g>
		<path class="st1" d="M160.07,162.5c1.61-5.73,3.16-11.25,4.71-16.76c0.59-2.12,1.23-4.22,1.76-6.35c0.13-0.54,0.08-1.26-0.18-1.73
			c-4-7.22-6.1-14.95-6.13-23.18c-0.04-10.25,2.82-19.67,8.75-28.07c6.03-8.55,14.02-14.58,23.92-17.99
			c7.67-2.64,15.54-3.37,23.51-1.89c17.12,3.17,29.28,12.85,36.38,28.67c3.81,8.51,4.8,17.54,3.16,26.77
			c-2.71,15.29-10.86,26.93-24.43,34.31c-14.66,7.98-29.78,8.07-44.85,0.76c-1.29-0.63-2.4-0.81-3.81-0.43
			C175.36,158.6,167.84,160.5,160.07,162.5z M171.83,150.93c0.58-0.11,0.92-0.15,1.26-0.24c3.87-0.99,7.74-1.97,11.59-3
			c0.96-0.26,1.73-0.2,2.62,0.36c5.87,3.64,12.29,5.72,19.2,5.97c11.52,0.43,21.6-3.28,29.84-11.37
			c9.22-9.05,13.14-20.21,11.86-33.04c-0.89-8.85-4.47-16.64-10.7-23.02c-10.56-10.81-23.43-14.88-38.13-11.46
			c-14.54,3.38-24.35,12.58-29.01,26.74c-3.95,12-2.15,23.5,4.62,34.17c0.54,0.85,0.63,1.55,0.35,2.48
			C174.15,142.57,173.04,146.64,171.83,150.93z"/>
		<path class="st4" d="M171.83,150.93c1.21-4.29,2.32-8.36,3.51-12.4c0.27-0.93,0.18-1.64-0.35-2.48
			c-6.77-10.67-8.57-22.17-4.62-34.17c4.66-14.17,14.47-23.37,29.01-26.74c14.7-3.42,27.57,0.65,38.13,11.46
			c6.23,6.37,9.81,14.17,10.7,23.02c1.28,12.83-2.64,23.98-11.86,33.04c-8.24,8.09-18.32,11.79-29.84,11.37
			c-6.91-0.26-13.32-2.33-19.2-5.97c-0.89-0.55-1.66-0.61-2.62-0.36c-3.86,1.03-7.73,2.01-11.59,3
			C172.75,150.78,172.41,150.82,171.83,150.93z M192.98,91.52c-1.63-0.18-2.96-0.06-4.11,0.97c-4.2,3.76-5.64,8.36-4.37,13.86
			c1.07,4.62,3.51,8.51,6.38,12.17c6.73,8.56,15.08,14.75,25.61,17.9c7,2.1,15.06-0.65,16.38-9.36c0.2-1.33-0.01-2.22-1.36-2.81
			c-3.2-1.41-6.36-2.9-9.53-4.39c-1.17-0.55-2.03-0.34-2.8,0.71c-1.14,1.56-2.29,3.12-3.57,4.56c-0.38,0.43-1.32,0.8-1.79,0.62
			c-7.42-2.75-13.2-7.5-17.12-14.43c-0.47-0.82-0.38-1.5,0.24-2.2c1.05-1.17,2.03-2.41,3.1-3.55c0.89-0.95,1-1.9,0.48-3.07
			c-1.19-2.66-2.43-5.31-3.42-8.04C196.34,92.29,195.22,91.01,192.98,91.52z"/>
		<path class="st1" d="M192.98,91.52c2.24-0.5,3.36,0.78,4.14,2.93c0.99,2.74,2.24,5.38,3.42,8.04c0.52,1.17,0.4,2.13-0.48,3.07
			c-1.07,1.15-2.05,2.38-3.1,3.55c-0.62,0.69-0.71,1.38-0.24,2.2c3.92,6.93,9.7,11.68,17.12,14.43c0.47,0.18,1.42-0.2,1.79-0.62
			c1.28-1.44,2.43-3,3.57-4.56c0.77-1.04,1.63-1.26,2.8-0.71c3.16,1.49,6.33,2.99,9.53,4.39c1.34,0.59,1.56,1.48,1.36,2.81
			c-1.32,8.71-9.38,11.45-16.38,9.36c-10.53-3.15-18.89-9.35-25.61-17.9c-2.88-3.66-5.32-7.55-6.38-12.17
			c-1.27-5.5,0.17-10.09,4.37-13.86C190.02,91.46,191.35,91.34,192.98,91.52z"/>
	</g>
</g>
</svg>
