<?xml version="1.0" encoding="utf-8"?>
<!-- Generator: Adobe Illustrator 24.0.2, SVG Export Plug-In . SVG Version: 6.00 Build 0)  -->
<svg version="1.1" id="Capa_1" xmlns="http://www.w3.org/2000/svg" xmlns:xlink="http://www.w3.org/1999/xlink" x="0px" y="0px"
	 viewBox="0 0 124.3 126.61" style="enable-background:new 0 0 124.3 126.61;" xml:space="preserve">
<style type="text/css">
	.st0{fill:#595959;}
	.st1{fill:#032F48;}
	.st2{fill:#F15A29;}
	.st3{fill:#426376;}
	.st4{fill:#434343;}
	.st5{fill:#E6E6E6;}
	.st6{fill:#2F2F30;}
	.st7{opacity:0.8;}
	.st8{clip-path:url(#SVGID_2_);fill:#F15A29;}
	.st9{opacity:0.6;}
	.st10{clip-path:url(#SVGID_4_);fill:#F15A29;}
	.st11{opacity:0.4;}
	.st12{clip-path:url(#SVGID_6_);fill:#F15A29;}
	.st13{opacity:0.2;}
	.st14{clip-path:url(#SVGID_8_);fill:#F15A29;}
	.st15{clip-path:url(#SVGID_10_);fill:#032F48;}
	.st16{clip-path:url(#SVGID_12_);fill:#032F48;}
	.st17{clip-path:url(#SVGID_14_);fill:#032F48;}
	.st18{clip-path:url(#SVGID_16_);fill:#032F48;}
	.st19{clip-path:url(#SVGID_18_);fill:#426376;}
	.st20{clip-path:url(#SVGID_20_);fill:#426376;}
	.st21{clip-path:url(#SVGID_22_);fill:#426376;}
	.st22{clip-path:url(#SVGID_24_);fill:#426376;}
	.st23{clip-path:url(#SVGID_26_);fill:#434343;}
	.st24{clip-path:url(#SVGID_28_);fill:#434343;}
	.st25{clip-path:url(#SVGID_30_);fill:#434343;}
	.st26{clip-path:url(#SVGID_32_);fill:#434343;}
	.st27{clip-path:url(#SVGID_34_);fill:#E6E6E6;}
	.st28{clip-path:url(#SVGID_36_);fill:#E6E6E6;}
	.st29{clip-path:url(#SVGID_38_);fill:#E6E6E6;}
	.st30{clip-path:url(#SVGID_40_);fill:#E6E6E6;}
	.st31{fill:#F9F9F9;}
	.st32{fill:#F5F5F5;}
</style>
<g>
	<path class="st0" d="M62.04,122.19c-1.69,0-3.24-0.02-4.74-0.07c-2.23-0.07-3.82-1.71-3.95-4.07c-0.12-2.24,1.53-4.13,3.83-4.39
		c0.27-0.03,0.53-0.04,0.8-0.04h0l0-3.02c0-2.31-0.01-4.62,0.01-6.92c-7.92-0.77-14.98-3.68-21.49-8.88l-1.62,1.7l-5.3,5.46
		c0.08,0.08,0.16,0.16,0.24,0.24c1.61,1.74,1.54,4.37-0.15,5.99c-0.82,0.78-1.87,1.22-2.94,1.22c-1.06,0-2.09-0.43-2.9-1.2
		c-2.26-2.17-4.47-4.39-6.58-6.59c-1.62-1.68-1.6-4.14,0.05-5.84c0.81-0.83,1.88-1.29,3.02-1.29c1.04,0,2.06,0.39,2.89,1.11l7.13-7
		c-4.85-6.18-7.74-13.24-8.59-21.03h-9.91c0,0.09-0.01,0.19-0.01,0.28c-0.11,2.49-1.9,4.3-4.26,4.3c-2.45-0.01-4.24-1.86-4.27-4.39
		c-0.03-2.96-0.03-5.94,0-8.86c0.03-2.53,1.82-4.37,4.25-4.38c2.37,0,4.17,1.81,4.28,4.3c0,0,0,0.01,0,0.02h9.94
		c0.92-7.84,3.85-14.86,8.72-20.93l-7.08-7.02c-0.04,0.04-0.09,0.09-0.14,0.13c-0.81,0.76-1.85,1.17-2.93,1.17
		c-1.07,0-2.09-0.41-2.88-1.15c-0.87-0.81-1.36-1.88-1.39-3c-0.03-1.1,0.4-2.17,1.21-3.01c2.13-2.22,4.35-4.43,6.59-6.58
		c0.8-0.76,1.82-1.19,2.87-1.19c1.09,0,2.15,0.44,2.98,1.25c1.66,1.62,1.72,4.15,0.15,5.93l7.07,7.07
		c6.09-4.82,13.14-7.7,21.01-8.56v-9.9c-0.12,0-0.24-0.01-0.36-0.01c-2.48-0.12-4.3-2.01-4.24-4.38c0.06-2.33,1.91-4.11,4.29-4.14
		c1.5-0.02,3-0.03,4.5-0.03c1.5,0,3,0.01,4.5,0.03c1.24,0.02,2.36,0.48,3.16,1.31c0.78,0.8,1.19,1.88,1.17,3.03
		c-0.04,2.29-1.8,4.05-4.18,4.19c-0.05,0-0.1,0.01-0.15,0.01v9.93c7.71,0.91,14.61,3.73,20.57,8.41l7.09-7.12
		c-1.4-1.78-1.31-4.16,0.29-5.73c0.82-0.81,1.88-1.25,2.97-1.25c1.09,0,2.16,0.45,3,1.27c2.1,2.03,4.24,4.18,6.38,6.38
		c0.86,0.89,1.32,2.01,1.29,3.15c-0.03,1.11-0.52,2.17-1.38,2.98c-0.79,0.74-1.8,1.14-2.86,1.14c-1.11,0-2.2-0.45-3.07-1.26
		c-0.05-0.04-0.09-0.09-0.14-0.13l-5.43,5.27l-1.68,1.68c0.47,0.6,0.93,1.2,1.37,1.81c4.24,5.87,6.75,12.39,7.45,19.39
		c1.74-0.02,3.47-0.03,5.2-0.03l4.78,0.01c0-0.07,0.01-0.15,0.01-0.22c0.14-2.39,1.91-4.14,4.21-4.17c2.4,0,4.27,1.84,4.31,4.2
		c0.05,3.18,0.05,6.31-0.01,9.3c-0.04,2.3-1.82,4.08-4.15,4.13c-0.02,0-0.09,0-0.11,0c-2.26,0-4.09-1.75-4.25-4.07
		c-0.01-0.16-0.02-0.32-0.02-0.48h-9.76c-0.41,5.47-2.81,13.43-8.55,20.98l6.98,6.97c0.82-0.69,1.83-1.07,2.85-1.07
		c1.07,0,2.1,0.42,2.89,1.17c0.86,0.82,1.34,1.88,1.37,3c0.02,1.1-0.41,2.17-1.22,3.01c-2.04,2.12-4.22,4.3-6.48,6.49
		c-0.84,0.81-1.9,1.26-2.99,1.26c-1.1,0-2.16-0.45-2.99-1.28c-1.68-1.67-1.69-4.24-0.02-5.98c0.04-0.04,0.09-0.09,0.13-0.13
		l-7.06-7.05c-0.18,0.15-0.37,0.29-0.56,0.44c-6.15,4.73-13.04,7.51-20.48,8.27c0.03,2.82,0.03,5.59,0.02,8.51l0,1.46
		c0.13,0.01,0.26,0.01,0.4,0.02c2.28,0.19,3.95,1.95,3.98,4.2c0.03,2.36-1.75,4.25-4.05,4.29
		C65.29,122.17,63.66,122.19,62.04,122.19z M62.57,31.15c-2.63,0-5.37,0.34-8.13,1.02c-13.59,3.34-23.37,14.98-24.33,28.96
		c-0.55,8.06,1.68,15.36,6.62,21.72c6.77,8.33,15.06,12.58,24.63,12.58c2.34,0,4.8-0.26,7.3-0.76
		c16.41-3.32,27.07-17.96,25.35-34.82c-0.91-8.93-5.06-16.32-12.32-21.96C75.78,33.42,69.34,31.15,62.57,31.15z"/>
</g>
</svg>
